{
  "formatVersion": 1,
  "database": {
    "version": 18,
    "identityHash": "def9681880953690e8c328430441ca39",
    "entities": [
      {
        "tableName": "products",
        "createSql": "CREATE TABLE IF NOT EXISTS `${TABLE_NAME}` (`id` INTEGER NOT NULL, `title` TEXT, `description` TEXT, `stockCount` REAL, `buyingPrice` REAL, `sellingPrice` REAL, PRIMARY KEY(`id`))",
        "fields": [
          {
            "fieldPath": "id",
            "columnName": "id",
            "affinity": "INTEGER",
            "notNull": true
          },
          {
            "fieldPath": "title",
            "columnName": "title",
            "affinity": "TEXT",
            "notNull": false
          },
          {
            "fieldPath": "description",
            "columnName": "description",
            "affinity": "TEXT",
            "notNull": false
          },
          {
            "fieldPath": "stockCount",
            "columnName": "stockCount",
            "affinity": "REAL",
            "notNull": false
          },
          {
            "fieldPath": "buyingPrice",
            "columnName": "buyingPrice",
            "affinity": "REAL",
            "notNull": false
          },
          {
            "fieldPath": "sellingPrice",
            "columnName": "sellingPrice",
            "affinity": "REAL",
            "notNull": false
          }
        ],
        "primaryKey": {
          "columnNames": [
            "id"
          ],
          "autoGenerate": false
        },
        "indices": [],
        "foreignKeys": []
      },
      {
        "tableName": "orders",
        "createSql": "CREATE TABLE IF NOT EXISTS `${TABLE_NAME}` (`localId` INTEGER NOT NULL, `product_id` INTEGER, `product_name` TEXT, `qty` INTEGER, `sell_at` REAL, PRIMARY KEY(`product_id`), FOREIGN KEY(`product_id`) REFERENCES `products`(`id`) ON UPDATE NO ACTION ON DELETE CASCADE )",
        "fields": [
          {
            "fieldPath": "localId",
            "columnName": "localId",
            "affinity": "INTEGER",
            "notNull": true
          },
          {
            "fieldPath": "product_id",
            "columnName": "product_id",
            "affinity": "INTEGER",
            "notNull": false
          },
          {
            "fieldPath": "productName",
            "columnName": "product_name",
            "affinity": "TEXT",
            "notNull": false
          },
          {
            "fieldPath": "quantity",
            "columnName": "qty",
            "affinity": "INTEGER",
            "notNull": false
          },
          {
            "fieldPath": "price",
            "columnName": "sell_at",
            "affinity": "REAL",
            "notNull": false
          }
        ],
        "primaryKey": {
          "columnNames": [
            "product_id"
          ],
          "autoGenerate": false
        },
        "indices": [
          {
            "name": "index_orders_product_id",
            "unique": false,
            "columnNames": [
              "product_id"
            ],
            "createSql": "CREATE INDEX IF NOT EXISTS `index_orders_product_id` ON `${TABLE_NAME}` (`product_id`)"
          }
        ],
        "foreignKeys": [
          {
            "table": "products",
            "onDelete": "CASCADE",
            "onUpdate": "NO ACTION",
            "columns": [
              "product_id"
            ],
            "referencedColumns": [
              "id"
            ]
          }
        ]
      },
      {
        "tableName": "users",
        "createSql": "CREATE TABLE IF NOT EXISTS `${TABLE_NAME}` (`id` INTEGER NOT NULL, `email` TEXT, `password` TEXT, PRIMARY KEY(`id`))",
        "fields": [
          {
            "fieldPath": "id",
            "columnName": "id",
            "affinity": "INTEGER",
            "notNull": true
          },
          {
            "fieldPath": "email",
            "columnName": "email",
            "affinity": "TEXT",
            "notNull": false
          },
          {
            "fieldPath": "password",
            "columnName": "password",
            "affinity": "TEXT",
            "notNull": false
          }
        ],
        "primaryKey": {
          "columnNames": [
            "id"
          ],
          "autoGenerate": false
        },
        "indices": [],
        "foreignKeys": []
      },
      {
        "tableName": "tenants",
        "createSql": "CREATE TABLE IF NOT EXISTS `${TABLE_NAME}` (`id` INTEGER NOT NULL, `name` TEXT, `user_id` INTEGER, `country_id` TEXT, PRIMARY KEY(`id`), FOREIGN KEY(`user_id`) REFERENCES `users`(`id`) ON UPDATE NO ACTION ON DELETE CASCADE )",
        "fields": [
          {
            "fieldPath": "id",
            "columnName": "id",
            "affinity": "INTEGER",
            "notNull": true
          },
          {
            "fieldPath": "name",
            "columnName": "name",
            "affinity": "TEXT",
            "notNull": false
          },
          {
            "fieldPath": "userId",
            "columnName": "user_id",
            "affinity": "INTEGER",
            "notNull": false
          },
          {
            "fieldPath": "countryId",
            "columnName": "country_id",
            "affinity": "TEXT",
            "notNull": false
          }
        ],
        "primaryKey": {
          "columnNames": [
            "id"
          ],
          "autoGenerate": false
        },
        "indices": [],
        "foreignKeys": [
          {
            "table": "users",
            "onDelete": "CASCADE",
            "onUpdate": "NO ACTION",
            "columns": [
              "user_id"
            ],
            "referencedColumns": [
              "id"
            ]
          }
        ]
      }
    ],
    "views": [],
    "setupQueries": [
      "CREATE TABLE IF NOT EXISTS room_master_table (id INTEGER PRIMARY KEY,identity_hash TEXT)",
      "INSERT OR REPLACE INTO room_master_table (id,identity_hash) VALUES(42, 'def9681880953690e8c328430441ca39')"
    ]
  }
}